%YAML 1.1
%TAG !u! tag:unity3d.com,2011:
--- !u!1 &2381424367592215407
GameObject:
  m_ObjectHideFlags: 0
  m_CorrespondingSourceObject: {fileID: 0}
  m_PrefabInstance: {fileID: 0}
  m_PrefabAsset: {fileID: 0}
  serializedVersion: 6
  m_Component:
  - component: {fileID: 2381424367592215406}
  m_Layer: 0
  m_Name: Nsp_prefab
  m_TagString: Untagged
  m_Icon: {fileID: 0}
  m_NavMeshLayer: 0
  m_StaticEditorFlags: 0
  m_IsActive: 1
--- !u!4 &2381424367592215406
Transform:
  m_ObjectHideFlags: 0
  m_CorrespondingSourceObject: {fileID: 0}
  m_PrefabInstance: {fileID: 0}
  m_PrefabAsset: {fileID: 0}
  m_GameObject: {fileID: 2381424367592215407}
  m_LocalRotation: {x: 0, y: 0, z: 0, w: 1}
  m_LocalPosition: {x: 0, y: 0, z: 0}
  m_LocalScale: {x: 1, y: 1, z: 1}
  m_Children:
  - {fileID: 7239026325219374689}
  m_Father: {fileID: 0}
  m_RootOrder: 0
  m_LocalEulerAnglesHint: {x: 0, y: 0, z: 0}
--- !u!1001 &2381424367226543483
PrefabInstance:
  m_ObjectHideFlags: 0
  serializedVersion: 2
  m_Modification:
    m_TransformParent: {fileID: 2381424367592215406}
    m_Modifications:
    - target: {fileID: -4216859302048453862, guid: 439c2a98eed9b884383505f395d33808,
        type: 3}
      propertyPath: m_LocalPosition.x
      value: 0.07784749
      objectReference: {fileID: 0}
    - target: {fileID: -4216859302048453862, guid: 439c2a98eed9b884383505f395d33808,
        type: 3}
      propertyPath: m_LocalPosition.y
      value: 0
      objectReference: {fileID: 0}
    - target: {fileID: -4216859302048453862, guid: 439c2a98eed9b884383505f395d33808,
        type: 3}
      propertyPath: m_LocalPosition.z
      value: -0.07784897
      objectReference: {fileID: 0}
    - target: {fileID: -4216859302048453862, guid: 439c2a98eed9b884383505f395d33808,
        type: 3}
      propertyPath: m_LocalRotation.x
      value: -0
      objectReference: {fileID: 0}
    - target: {fileID: -4216859302048453862, guid: 439c2a98eed9b884383505f395d33808,
        type: 3}
      propertyPath: m_LocalRotation.y
      value: -0.70710576
      objectReference: {fileID: 0}
    - target: {fileID: -4216859302048453862, guid: 439c2a98eed9b884383505f395d33808,
        type: 3}
      propertyPath: m_LocalRotation.z
      value: -0
      objectReference: {fileID: 0}
    - target: {fileID: -4216859302048453862, guid: 439c2a98eed9b884383505f395d33808,
        type: 3}
      propertyPath: m_LocalRotation.w
      value: 0.70710784
      objectReference: {fileID: 0}
    - target: {fileID: -4216859302048453862, guid: 439c2a98eed9b884383505f395d33808,
        type: 3}
      propertyPath: m_RootOrder
      value: 0
      objectReference: {fileID: 0}
    - target: {fileID: -4216859302048453862, guid: 439c2a98eed9b884383505f395d33808,
        type: 3}
      propertyPath: m_LocalEulerAnglesHint.x
      value: 0
      objectReference: {fileID: 0}
    - target: {fileID: -4216859302048453862, guid: 439c2a98eed9b884383505f395d33808,
        type: 3}
      propertyPath: m_LocalEulerAnglesHint.y
      value: -90.00001
      objectReference: {fileID: 0}
    - target: {fileID: -4216859302048453862, guid: 439c2a98eed9b884383505f395d33808,
        type: 3}
      propertyPath: m_LocalEulerAnglesHint.z
      value: 0
      objectReference: {fileID: 0}
    - target: {fileID: -2350589529781964874, guid: 439c2a98eed9b884383505f395d33808,
        type: 3}
      propertyPath: m_Materials.Array.data[0]
      value: 
      objectReference: {fileID: 2100000, guid: 19f178532f856bf4c9d359a7e6d34104, type: 2}
    - target: {fileID: -1615263411965702641, guid: 439c2a98eed9b884383505f395d33808,
        type: 3}
      propertyPath: m_Materials.Array.data[0]
      value: 
      objectReference: {fileID: 0}
    - target: {fileID: -927199367670048503, guid: 439c2a98eed9b884383505f395d33808,
        type: 3}
      propertyPath: m_Name
      value: usp45
      objectReference: {fileID: 0}
    m_RemovedComponents:
    - {fileID: -6057140222963153312, guid: 439c2a98eed9b884383505f395d33808, type: 3}
  m_SourcePrefab: {fileID: 100100000, guid: 439c2a98eed9b884383505f395d33808, type: 3}
--- !u!4 &7239026325219374689 stripped
Transform:
  m_CorrespondingSourceObject: {fileID: -4216859302048453862, guid: 439c2a98eed9b884383505f395d33808,
    type: 3}
  m_PrefabInstance: {fileID: 2381424367226543483}
  m_PrefabAsset: {fileID: 0}
